{
  "distrito": {
    "Godoy Cruz": "https://sumen.godoycruz.gob.ar/api/public/",
    "Maipu": "http://200.55.17.186:3060/api/public/",
    "Las Heras": "https://sumen.godoycruz.gob.ar/api/public/",
    "Ciudad": "https://sumen.godoycruz.gob.ar/api/public/",
    "Lujan": "https://sumen.godoycruz.gob.ar/api/public/",
    "Guaymallen": "https://sumen.godoycruz.gob.ar/api/public/"
  },
  "api": {
    "metas":"goals",
    "metasTodas":"goals/*",
    "proyectos":"projects",
    "proyectosTodos":"projects/*",
    "objetivos":"objectives",
    "empresas":"companies",
    "empresasMetas":"companies/*/budgets",
    "empresasObjetivos":"companies/*/goals",
    "consejos":"councils",
    "distritos":"districts",
    "municipios":"subprefectures"
  }
}
